{
  "info": [
    {
      "month": "Jan",
      "data": [
        {
          "week": 1,
          "presence": 71
        },
        {
          "week": 2,
          "presence": 15
        },
        {
          "week": 3,
          "presence": 93
        },
        {
          "week": 4,
          "presence": 68
        }
      ]
    },
    {
      "month": "Feb",
      "data": [
        {
          "week": 1,
          "presence": 56
        },
        {
          "week": 2,
          "presence": 47
        },
        {
          "week": 3,
          "presence": 68
        },
        {
          "week": 4,
          "presence": 94
        }
      ]
    },
    {
      "month": "Mar",
      "data": [
        {
          "week": 1,
          "presence": 71
        },
        {
          "week": 2,
          "presence": 78
        },
        {
          "week": 3,
          "presence": 93
        },
        {
          "week": 4,
          "presence": 25
        }
      ]
    },
    {
      "month": "Apr",
      "data": [
        {
          "week": 1,
          "presence": 71
        },
        {
          "week": 2,
          "presence": 15
        },
        {
          "week": 3,
          "presence": 93
        },
        {
          "week": 4,
          "presence": 68
        }
      ]
    },
    {
      "month": "May",
      "data": [
        {
          "week": 1,
          "presence": 71
        },
        {
          "week": 2,
          "presence": 15
        },
        {
          "week": 3,
          "presence": 93
        },
        {
          "week": 4,
          "presence": 68
        }
      ]
    },
    {
      "month": "June",
      "data": [
        {
          "week": 1,
          "presence": 15
        },
        {
          "week": 2,
          "presence": 36
        },
        {
          "week": 3,
          "presence": 47
        },
        {
          "week": 4,
          "presence": 61
        }
      ]
    },
    {
      "month": "July",
      "data": [
        {
          "week": 1,
          "presence": 58
        },
        {
          "week": 2,
          "presence": 20
        },
        {
          "week": 3,
          "presence": 67
        },
        {
          "week": 4,
          "presence": 58
        }
      ]
    },
    {
      "month": "Aug",
      "data": [
        {
          "week": 1,
          "presence": 69
        },
        {
          "week": 2,
          "presence": 82
        },
        {
          "week": 3,
          "presence": 57
        },
        {
          "week": 4,
          "presence": 68
        }
      ]
    },
    {
      "month": "Sep",
      "data": [
        {
          "week": 1,
          "presence": 92
        },
        {
          "week": 2,
          "presence": 59
        },
        {
          "week": 3,
          "presence": 93
        },
        {
          "week": 4,
          "presence": 57
        }
      ]
    },
    {
      "month": "Oct",
      "data": [
        {
          "week": 1,
          "presence": 94
        },
        {
          "week": 2,
          "presence": 69
        },
        {
          "week": 3,
          "presence": 59
        },
        {
          "week": 4,
          "presence": 47
        }
      ]
    },
    {
      "month": "Nov",
      "data": [
        {
          "week": 1,
          "presence": 91
        },
        {
          "week": 2,
          "presence": 67
        },
        {
          "week": 3,
          "presence": 57
        },
        {
          "week": 4,
          "presence": 86
        }
      ]
    },
    {
      "month": "Dec",
      "data": [
        {
          "week": 1,
          "presence": 45
        },
        {
          "week": 2,
          "presence": 57
        },
        {
          "week": 3,
          "presence": 92
        },
        {
          "week": 4,
          "presence": 57
        }
      ]
    }
  ]
}