{
  "data":[
    {
      "time":"8 A.M.",
      "presence":68
    },
    {
      "time":"9 A.M.",
      "presence":17
    },
    {
      "time":"10 A.M.",
      "presence":36
    },
    {
      "time":"11 A.M.",
      "presence":92
    },
    {
      "time":"12 P.M.",
      "presence":49
    },
    {
      "time":"1 P.M.",
      "presence":62
    },
    {
      "time":"2 P.M.",
      "presence":48
    },
    {
      "time":"3 P.M.",
      "presence":68
    },
    {
      "time":"4 P.M.",
      "presence":76
    },
    {
      "time":"5 P.M.",
      "presence":82
    },
    {
      "time":"6 P.M.",
      "presence":93
    },
    {
      "time":"7 P.M.",
      "presence":91
    },
    {
      "time":"8 P.M.",
      "presence":85
    }
    ]
}